{
    "version": 1,
    "mqtt": {
        "url": "tcp://192.168.10.3:1883",
        "username": "Pedro",
        "password": "ze",
        "start": {
            "topic": "/remotusservice/estado",
            "message": "1",
            "retainded": true,
            "qos": 0
        },
        "will": {
            "topic": "/remotusservice/estado",
            "message": "0",
            "retainded": true,
            "qos": 0
        },
        "config": {
            "topic": "/remotusserver/config",
            "qos": 0
        }
    },
    "variables": {
        "values": [
            {"/arduino/1/rega/1": "1"},
            {"/arduino/1/rega/2": "1"},
            {"/arduino/1/rega/3": "1"},
            {"/arduino/1/rega/4": "1"},
            {"/arduino/1/rega/5": "1"},
            {"/arduino/1/rega/6": "1"},
            {"/arduino/1/rega/7": "1"},
            {"/arduino/1/rega/8": "1"},
            {"/arduino/1/humidade_solo": "0"}
        ]
    },
    "conditions": [
        {
            "class": "ConditionTopic",
            "name" : "Rega setor 1-8",
            "topics": [
                "/casa/rega"
            ],
            "condition": "/arduino/1/humidade_solo>300",
            "schedulingPattern": "*/5 * * * *",
            "actions": [
                {
                    "class": "ActionPublish",
                    "topic": "/arduino/1/rega/1",
                    "name" : "liga sector 1",
                    "retainded": false,
                    "qos": 0,
                    "value": "0",
                    "delay": 0
                },
                {
                    "class": "ActionPublish",
                    "name" : "desliga sector 2",
                    "topic": "/arduino/1/rega/1",
                    "retainded": false,
                    "qos": 0,
                    "value": "1",
                    "delay": 1000
                },
                {
                    "class": "ActionPublish",
                    "name" : "liga sector 2",
                    "topic": "/arduino/1/rega/2",
                    "retainded": false,
                    "qos": 0,
                    "value": "0",
                    "delay": 1000
                },
                {
                    "class": "ActionPublish",
                    "name" : "desliga sector 2",
                    "topic": "/arduino/1/rega/2",
                    "retainded": false,
                    "qos": 0,
                    "value": "1",
                    "delay": 2000
                },
                {
                    "class": "ActionPublish",
                    "name" : "liga sector 3",
                    "topic": "/arduino/1/rega/3",
                    "retainded": false,
                    "qos": 0,
                    "value": "0",
                    "delay": 2000
                },
                {
                    "class": "ActionPublish",
                    "name" : "desliga sector 3",
                    "topic": "/arduino/1/rega/3",
                    "retainded": false,
                    "qos": 0,
                    "value": "1",
                    "delay": 3000
                },
                {
                    "class": "ActionPublish",
                    "name" : "liga sector 4",
                    "topic": "/arduino/1/rega/4",
                    "retainded": false,
                    "qos": 0,
                    "value": "0",
                    "delay": 3000
                },
                {
                    "class": "ActionPublish",
                    "name" : "desliga sector 4",
                    "topic": "/arduino/1/rega/4",
                    "retainded": false,
                    "qos": 0,
                    "value": "1",
                    "delay": 4000
                },
                {
                    "class": "ActionPublish",
                    "name" : "liga sector 5",
                    "topic": "/arduino/1/rega/5",
                    "retainded": false,
                    "qos": 0,
                    "value": "0",
                    "delay": 4000
                },
                {
                    "class": "ActionPublish",
                    "name" : "desliga sector 1",
                    "topic": "/arduino/1/rega/5",
                    "retainded": false,
                    "qos": 0,
                    "value": "1",
                    "delay": 5000
                },
                {
                    "class": "ActionPublish",
                    "name" : "liga sector 6",
                    "topic": "/arduino/1/rega/6",
                    "retainded": false,
                    "qos": 0,
                    "value": "0",
                    "delay": 5000
                },
                {
                    "class": "ActionPublish",
                    "name" : "desliga sector 6",
                    "topic": "/arduino/1/rega/6",
                    "retainded": false,
                    "qos": 0,
                    "value": "1",
                    "delay": 6000
                },
                {
                    "class": "ActionPublish",
                    "name" : "liga sector 7",
                    "topic": "/arduino/1/rega/7",
                    "retainded": false,
                    "qos": 0,
                    "value": "0",
                    "delay": 6000
                },
                {
                    "class": "ActionPublish",
                    "name" : "desliga sector 7",
                    "topic": "/arduino/1/rega/7",
                    "retainded": false,
                    "qos": 0,
                    "value": "1",
                    "delay": 7000
                },
                {
                    "class": "ActionPublish",
                    "name" : "liga sector 8",
                    "topic": "/arduino/1/rega/8",
                    "retainded": false,
                    "qos": 0,
                    "value": "0",
                    "delay": 7000
                },
                {
                    "class": "ActionPublish",
                    "name" : "desliga sector 8",
                    "topic": "/arduino/1/rega/8",
                    "retainded": false,
                    "qos": 0,
                    "value": "1",
                    "delay": 8000
                }
                
            ]
        }
    ]
}