{
    "version": 1,
    "mqtt": {
        "url": "tcp://192.168.10.3:1883",
        "username": "Pedro",
        "password": "ze",
        "start": {
            "topic": "/remotusservice/estado",
            "message": "1",
            "retainded": true,
            "qos": 0
        },
        "will": {
            "topic": "/remotusservice/estado",
            "message": "0",
            "retainded": true,
            "qos": 0
        }
    },
    "conditions": [
        {
            "class": "ConditionTopic",
            "topics": [
                "/casa/portao/comando/output"
            ],
            "condition": "/arduino/1/rele!=1",
            "actions": [
                {
                    "class": "ActionPublish",
                    "topic": "/arduino/1/rele",
                    "retainded": false,
                    "qos": 0,
                    "value": "1",
                    "delay": 0
                },
                {
                    "class": "ActionPublish",
                    "topic": "/arduino/1/rele",
                    "retainded": false,
                    "qos": 0,
                    "value": "0",
                    "delay": 1000
                }
            ]
        }
    ]
}